<svg width="110" height="106" viewBox="0 0 110 106" fill="none" xmlns="http://www.w3.org/2000/svg">
<ellipse cx="55.0837" cy="52.8989" rx="54.6508" ry="52.7183" fill="#0A253B"/>
<path d="M55.0837 30.7317C48.7481 30.7317 43.5937 35.7039 43.5937 41.8154V48.4657H41.2957C40.0767 48.4657 38.9077 48.9328 38.0458 49.7642C37.1839 50.5956 36.6997 51.7233 36.6997 52.8992V70.6331C36.6997 71.809 37.1839 72.9366 38.0458 73.7681C38.9077 74.5995 40.0767 75.0666 41.2957 75.0666H68.8717C70.0907 75.0666 71.2597 74.5995 72.1216 73.7681C72.9835 72.9366 73.4678 71.809 73.4678 70.6331V52.8992C73.4678 51.7233 72.9835 50.5956 72.1216 49.7642C71.2597 48.9328 70.0907 48.4657 68.8717 48.4657H66.5737V41.8154C66.5737 35.7039 61.4193 30.7317 55.0837 30.7317ZM48.1897 41.8154C48.1897 38.1489 51.2828 35.1652 55.0837 35.1652C58.8846 35.1652 61.9777 38.1489 61.9777 41.8154V48.4657H48.1897V41.8154ZM57.3817 65.5856V70.6331H52.7857V65.5856C51.9823 65.1418 51.3372 64.4735 50.9354 63.6689C50.5337 62.8643 50.3941 61.9611 50.5352 61.0784C50.6763 60.1958 51.0914 59.3751 51.7258 58.7246C52.3601 58.0741 53.184 57.6244 54.0887 57.4346C54.7606 57.2913 55.4574 57.2953 56.1276 57.4463C56.7977 57.5974 57.4242 57.8916 57.9608 58.3073C58.4974 58.723 58.9304 59.2496 59.2279 59.8482C59.5254 60.4469 59.6798 61.1023 59.6797 61.7661C59.6784 62.5414 59.4653 63.3027 59.0618 63.9732C58.6584 64.6438 58.0789 65.1999 57.3817 65.5856V65.5856Z" fill="white"/>
</svg>
